<svg width="24" height="25" viewBox="0 0 24 25" fill="none" xmlns="http://www.w3.org/2000/svg">
<g clip-path="url(#clip0_684_11416)">
<path d="M10.808 23.1047V12.7817H8V9.06491H10.808V5.89029C10.808 3.39564 12.4668 1.10474 16.2888 1.10474C17.8363 1.10474 18.9806 1.24895 18.9806 1.24895L18.8904 4.7198C18.8904 4.7198 17.7234 4.70875 16.45 4.70875C15.0717 4.70875 14.8509 5.32618 14.8509 6.35097V9.06491H19L18.8195 12.7817H14.8509V23.1047H10.808Z" fill="white"/>
</g>
<defs>
<clipPath id="clip0_684_11416">
<rect width="11" height="22" fill="white" transform="translate(8 1.10474)"/>
</clipPath>
</defs>
</svg>
