<svg width="44" height="45" viewBox="0 0 44 45" fill="none" xmlns="http://www.w3.org/2000/svg">
<g filter="url(#filter0_b_655_7584)">
<rect y="0.699951" width="44" height="44" rx="22" fill="white" fill-opacity="0.8"/>
<g clip-path="url(#clip0_655_7584)">
<path d="M13.6093 12.7781C13.2226 12.8796 12.9296 13.0554 12.6249 13.3601C12.3241 13.6687 12.1796 13.9148 12.078 14.325C11.9999 14.6179 11.9999 14.7781 11.9999 20.821C11.9999 27.6921 11.9843 27.2625 12.2616 27.7859C12.5155 28.2742 12.9999 28.6726 13.5624 28.8562C13.7655 28.9265 14.0585 28.9304 18.5702 28.9421L23.3593 28.9539L23.3788 27.4578C23.3984 25.825 23.4062 25.7312 23.6405 25.1257C23.8827 24.5046 24.4179 23.8406 24.9882 23.4539C25.996 22.7742 27.2655 22.6375 28.3749 23.0906C29.5976 23.5906 30.4687 24.7195 30.6327 26.0242C30.6523 26.2039 30.6718 26.8914 30.6718 27.5515C30.6718 28.2156 30.6835 28.7546 30.703 28.7546C30.7187 28.7546 30.8241 28.7 30.9374 28.6335C31.2304 28.4695 31.5702 28.1062 31.7382 27.7859C32.0155 27.2625 31.9999 27.6921 31.9999 20.821C31.9999 14.7703 31.9999 14.6179 31.9218 14.325C31.8202 13.9226 31.6523 13.6335 31.3398 13.325C31.0351 13.0242 30.7851 12.8835 30.3749 12.7781C30.078 12.7 29.9179 12.7 21.9843 12.7039C14.1327 12.7039 13.8866 12.7078 13.6093 12.7781ZM26.6366 15.3171C26.8749 15.4226 26.9687 15.5906 26.9491 15.8757C26.9374 16.075 26.9179 16.1179 26.7929 16.2468L26.6484 16.3914L22.0663 16.4031C18.8359 16.4109 17.4569 16.3992 17.3866 16.3679C17.328 16.3445 17.2343 16.2742 17.1718 16.2117C17.0859 16.1218 17.0624 16.0554 17.0507 15.8757C17.0312 15.5906 17.1249 15.4226 17.3632 15.3171C17.5234 15.2429 17.6718 15.239 21.9999 15.239C26.328 15.239 26.4765 15.2429 26.6366 15.3171ZM29.2304 17.8679C29.3124 17.9226 29.3905 18.0281 29.4374 18.1375C29.5038 18.3015 29.5077 18.3406 29.4648 18.4851C29.4023 18.6921 29.246 18.8523 29.0468 18.907C28.828 18.9695 15.1679 18.9656 14.9491 18.907C14.746 18.8484 14.5546 18.6453 14.5194 18.446C14.4843 18.2351 14.6054 17.9656 14.7812 17.8562C14.9101 17.7781 14.953 17.7781 22.0038 17.7781H29.0976L29.2304 17.8679ZM29.1913 20.364C29.6054 20.5984 29.5663 21.2117 29.121 21.3953C28.9335 21.4773 15.0663 21.4773 14.8788 21.3953C14.4374 21.2117 14.3944 20.6023 14.8007 20.364L14.9491 20.2781H21.996H29.039L29.1913 20.364ZM21.7538 24.7156C22.121 24.989 22.1288 25.4578 21.7694 25.696L21.6366 25.7859H18.2929C15.1015 25.7859 14.9413 25.782 14.8124 25.7117C14.6171 25.6101 14.4843 25.3367 14.5194 25.1218C14.5546 24.9265 14.7343 24.7078 14.9062 24.657C14.9765 24.6335 16.414 24.6218 18.3359 24.6257C21.6249 24.6335 21.6444 24.6335 21.7538 24.7156Z" fill="#274441"/>
<path d="M26.5194 24.0516C25.6444 24.2391 24.9452 24.8719 24.6718 25.7234C24.5468 26.1141 24.5272 26.6844 24.6288 27.0633C24.953 28.282 26.121 29.0789 27.3319 28.907C28.9022 28.6883 29.8632 27.1219 29.3437 25.6375C29.1444 25.0711 28.6757 24.5398 28.1327 24.2742C27.5937 24.0047 27.0702 23.9344 26.5194 24.0516Z" fill="#274441"/>
<path d="M24.5469 30.7195C24.5586 32.2507 24.5625 32.3093 24.6406 32.4109C24.7891 32.6101 24.918 32.6804 25.1406 32.6804C25.3438 32.6804 25.3711 32.6648 26.1641 32.1375C26.6133 31.8367 26.9961 31.5945 27.0195 31.5945C27.043 31.5945 27.4258 31.8367 27.875 32.1375C28.668 32.6648 28.6953 32.6804 28.8984 32.6804C29.1211 32.6804 29.25 32.6101 29.3984 32.4109C29.4766 32.3093 29.4805 32.2507 29.4922 30.7234L29.5039 29.1453L29.2188 29.3601C28.8438 29.6453 28.3711 29.8718 27.9062 29.9929C27.4258 30.1179 26.7148 30.1296 26.2578 30.0242C25.7188 29.8992 25.2109 29.657 24.7656 29.3132L24.5352 29.1375L24.5469 30.7195Z" fill="#274441"/>
</g>
</g>
<defs>
<filter id="filter0_b_655_7584" x="-4" y="-3.30005" width="52" height="52" filterUnits="userSpaceOnUse" color-interpolation-filters="sRGB">
<feFlood flood-opacity="0" result="BackgroundImageFix"/>
<feGaussianBlur in="BackgroundImage" stdDeviation="2"/>
<feComposite in2="SourceAlpha" operator="in" result="effect1_backgroundBlur_655_7584"/>
<feBlend mode="normal" in="SourceGraphic" in2="effect1_backgroundBlur_655_7584" result="shape"/>
</filter>
<clipPath id="clip0_655_7584">
<rect width="20" height="20" fill="white" transform="translate(12 12.7)"/>
</clipPath>
</defs>
</svg>
